         run       event       nTopo   nIdTracks  nTauTracks       nTaus      nMuons       nElec   nTrueElec   nFakeElec       nPhot   nTruePhot   nFakePhot
      242000       60001         598          71           3           2           2           0           0           0           3           1           2
      242000       60002         390          44          15           3           3           5           0           5           2           2           0
      242000       60003         123           5           0           0           0           0           0           0           0           0           0
      242000       60004         333          23           8           1           2           2           0           2           1           0           1
      242000       60005         339          23           3           1           0           0           0           0           1           1           0
